<svg width="163" height="58" viewBox="0 0 163 58" fill="none" xmlns="http://www.w3.org/2000/svg">
<rect width="163" height="58" fill="url(#paint0_linear_123_1118)"/>
<defs>
<linearGradient id="paint0_linear_123_1118" x1="151.037" y1="45" x2="13.3928" y2="37.2232" gradientUnits="userSpaceOnUse">
<stop stop-color="#89B3D6"/>
<stop offset="1" stop-color="#6299C5"/>
</linearGradient>
</defs>
</svg>
